{
  "best_metric": null,
  "best_model_checkpoint": null,
  "epoch": 0.6380094106388069,
  "eval_steps": 500,
  "global_step": 2000,
  "is_hyper_param_search": false,
  "is_local_process_zero": true,
  "is_world_process_zero": true,
  "log_history": [
    {
      "epoch": 0.03,
      "grad_norm": 0.5006940364837646,
      "learning_rate": 9.999122702422906e-05,
      "loss": 4.1181,
      "step": 100
    },
    {
      "epoch": 0.06,
      "grad_norm": 0.7941417694091797,
      "learning_rate": 9.9879767138019e-05,
      "loss": 2.6492,
      "step": 200
    },
    {
      "epoch": 0.1,
      "grad_norm": 0.9539546370506287,
      "learning_rate": 9.964047282850401e-05,
      "loss": 2.5177,
      "step": 300
    },
    {
      "epoch": 0.13,
      "grad_norm": 1.303494930267334,
      "learning_rate": 9.927395737140312e-05,
      "loss": 2.4254,
      "step": 400
    },
    {
      "epoch": 0.16,
      "grad_norm": 1.0945278406143188,
      "learning_rate": 9.878116009131186e-05,
      "loss": 2.4607,
      "step": 500
    },
    {
      "epoch": 0.19,
      "grad_norm": 1.0706285238265991,
      "learning_rate": 9.816334395435298e-05,
      "loss": 2.4036,
      "step": 600
    },
    {
      "epoch": 0.22,
      "grad_norm": 0.9590988755226135,
      "learning_rate": 9.74220923313822e-05,
      "loss": 2.3765,
      "step": 700
    },
    {
      "epoch": 0.26,
      "grad_norm": 1.2870866060256958,
      "learning_rate": 9.655930494004424e-05,
      "loss": 2.3458,
      "step": 800
    },
    {
      "epoch": 0.29,
      "grad_norm": 1.1419273614883423,
      "learning_rate": 9.557719297607906e-05,
      "loss": 2.298,
      "step": 900
    },
    {
      "epoch": 0.32,
      "grad_norm": 1.1756781339645386,
      "learning_rate": 9.447827344635616e-05,
      "loss": 2.3115,
      "step": 1000
    },
    {
      "epoch": 0.35,
      "grad_norm": 1.1288461685180664,
      "learning_rate": 9.326536271816031e-05,
      "loss": 2.3559,
      "step": 1100
    },
    {
      "epoch": 0.38,
      "grad_norm": 1.3500564098358154,
      "learning_rate": 9.194156930126124e-05,
      "loss": 2.3347,
      "step": 1200
    },
    {
      "epoch": 0.41,
      "grad_norm": 1.434709072113037,
      "learning_rate": 9.051028588126542e-05,
      "loss": 2.3335,
      "step": 1300
    },
    {
      "epoch": 0.45,
      "grad_norm": 1.11580491065979,
      "learning_rate": 8.897518062466762e-05,
      "loss": 2.3192,
      "step": 1400
    },
    {
      "epoch": 0.48,
      "grad_norm": 1.185276985168457,
      "learning_rate": 8.73401877778857e-05,
      "loss": 2.3274,
      "step": 1500
    },
    {
      "epoch": 0.51,
      "grad_norm": 1.1750296354293823,
      "learning_rate": 8.560949758437251e-05,
      "loss": 2.3363,
      "step": 1600
    },
    {
      "epoch": 0.54,
      "grad_norm": 1.525639295578003,
      "learning_rate": 8.378754554564498e-05,
      "loss": 2.3074,
      "step": 1700
    },
    {
      "epoch": 0.57,
      "grad_norm": 1.4209116697311401,
      "learning_rate": 8.187900105375373e-05,
      "loss": 2.3372,
      "step": 1800
    },
    {
      "epoch": 0.61,
      "grad_norm": 1.076099157333374,
      "learning_rate": 7.988875542432572e-05,
      "loss": 2.332,
      "step": 1900
    },
    {
      "epoch": 0.64,
      "grad_norm": 1.0986229181289673,
      "learning_rate": 7.782190936085003e-05,
      "loss": 2.3099,
      "step": 2000
    }
  ],
  "logging_steps": 100,
  "max_steps": 6268,
  "num_input_tokens_seen": 0,
  "num_train_epochs": 2,
  "save_steps": 500,
  "total_flos": 2.6413762175410176e+16,
  "train_batch_size": 1,
  "trial_name": null,
  "trial_params": null
}
