{
  "best_metric": null,
  "best_model_checkpoint": null,
  "epoch": 0.6147226064238512,
  "eval_steps": 500,
  "global_step": 1000,
  "is_hyper_param_search": false,
  "is_local_process_zero": true,
  "is_world_process_zero": true,
  "log_history": [
    {
      "epoch": 0.06,
      "grad_norm": Infinity,
      "learning_rate": 9.989631032613513e-05,
      "loss": 3.8422,
      "step": 100
    },
    {
      "epoch": 0.12,
      "grad_norm": 4.462977886199951,
      "learning_rate": 9.934526754287036e-05,
      "loss": 2.6039,
      "step": 200
    },
    {
      "epoch": 0.18,
      "grad_norm": 4.167625427246094,
      "learning_rate": 9.832459181264152e-05,
      "loss": 2.4909,
      "step": 300
    },
    {
      "epoch": 0.25,
      "grad_norm": Infinity,
      "learning_rate": 9.686103704212018e-05,
      "loss": 2.4174,
      "step": 400
    },
    {
      "epoch": 0.31,
      "grad_norm": 4.973806381225586,
      "learning_rate": 9.493898924179736e-05,
      "loss": 2.4041,
      "step": 500
    },
    {
      "epoch": 0.37,
      "grad_norm": 6.069128513336182,
      "learning_rate": 9.258924429842279e-05,
      "loss": 2.4033,
      "step": 600
    },
    {
      "epoch": 0.43,
      "grad_norm": 5.342837333679199,
      "learning_rate": 8.983416540298353e-05,
      "loss": 2.3646,
      "step": 700
    },
    {
      "epoch": 0.49,
      "grad_norm": 4.933993816375732,
      "learning_rate": 8.669997342498159e-05,
      "loss": 2.3395,
      "step": 800
    },
    {
      "epoch": 0.55,
      "grad_norm": 5.681318759918213,
      "learning_rate": 8.321649736096064e-05,
      "loss": 2.3209,
      "step": 900
    },
    {
      "epoch": 0.61,
      "grad_norm": 4.102912902832031,
      "learning_rate": 7.94168904434612e-05,
      "loss": 2.307,
      "step": 1000
    }
  ],
  "logging_steps": 100,
  "max_steps": 3252,
  "num_input_tokens_seen": 0,
  "num_train_epochs": 2,
  "save_steps": 500,
  "total_flos": 1.380815480689152e+16,
  "train_batch_size": 1,
  "trial_name": null,
  "trial_params": null
}
